%YAML 1.1
%TAG !u! tag:unity3d.com,2011:
--- !u!1 &8193144314275554762
GameObject:
  m_ObjectHideFlags: 0
  m_CorrespondingSourceObject: {fileID: 0}
  m_PrefabInstance: {fileID: 0}
  m_PrefabAsset: {fileID: 0}
  serializedVersion: 6
  m_Component:
  - component: {fileID: 4536261174032616583}
  - component: {fileID: 2724995716068523678}
  - component: {fileID: 5002958317814330100}
  - component: {fileID: 640624548057507290}
  m_Layer: 0
  m_Name: Container
  m_TagString: Untagged
  m_Icon: {fileID: 0}
  m_NavMeshLayer: 0
  m_StaticEditorFlags: 0
  m_IsActive: 1
--- !u!4 &4536261174032616583
Transform:
  m_ObjectHideFlags: 0
  m_CorrespondingSourceObject: {fileID: 0}
  m_PrefabInstance: {fileID: 0}
  m_PrefabAsset: {fileID: 0}
  m_GameObject: {fileID: 8193144314275554762}
  m_LocalRotation: {x: 0, y: 0, z: 0, w: 1}
  m_LocalPosition: {x: 0, y: 0, z: 0}
  m_LocalScale: {x: 4, y: 1, z: 1}
  m_ConstrainProportionsScale: 0
  m_Children: []
  m_Father: {fileID: 0}
  m_RootOrder: 0
  m_LocalEulerAnglesHint: {x: 0, y: 0, z: 0}
--- !u!33 &2724995716068523678
MeshFilter:
  m_ObjectHideFlags: 0
  m_CorrespondingSourceObject: {fileID: 0}
  m_PrefabInstance: {fileID: 0}
  m_PrefabAsset: {fileID: 0}
  m_GameObject: {fileID: 8193144314275554762}
  m_Mesh: {fileID: 10202, guid: 0000000000000000e000000000000000, type: 0}
--- !u!23 &5002958317814330100
MeshRenderer:
  m_ObjectHideFlags: 0
  m_CorrespondingSourceObject: {fileID: 0}
  m_PrefabInstance: {fileID: 0}
  m_PrefabAsset: {fileID: 0}
  m_GameObject: {fileID: 8193144314275554762}
  m_Enabled: 1
  m_CastShadows: 1
  m_ReceiveShadows: 1
  m_DynamicOccludee: 1
  m_StaticShadowCaster: 0
  m_MotionVectors: 1
  m_LightProbeUsage: 1
  m_ReflectionProbeUsage: 1
  m_RayTracingMode: 2
  m_RayTraceProcedural: 0
  m_RenderingLayerMask: 1
  m_RendererPriority: 0
  m_Materials:
  - {fileID: 2100000, guid: 5a2fbf4401de79c40b1062ddcdb78259, type: 2}
  m_StaticBatchInfo:
    firstSubMesh: 0
    subMeshCount: 0
  m_StaticBatchRoot: {fileID: 0}
  m_ProbeAnchor: {fileID: 0}
  m_LightProbeVolumeOverride: {fileID: 0}
  m_ScaleInLightmap: 1
  m_ReceiveGI: 1
  m_PreserveUVs: 0
  m_IgnoreNormalsForChartDetection: 0
  m_ImportantGI: 0
  m_StitchLightmapSeams: 1
  m_SelectedEditorRenderState: 3
  m_MinimumChartSize: 4
  m_AutoUVMaxDistance: 0.5
  m_AutoUVMaxAngle: 89
  m_LightmapParameters: {fileID: 0}
  m_SortingLayerID: 0
  m_SortingLayer: 0
  m_SortingOrder: 0
  m_AdditionalVertexStreams: {fileID: 0}
--- !u!114 &640624548057507290
MonoBehaviour:
  m_ObjectHideFlags: 0
  m_CorrespondingSourceObject: {fileID: 0}
  m_PrefabInstance: {fileID: 0}
  m_PrefabAsset: {fileID: 0}
  m_GameObject: {fileID: 8193144314275554762}
  m_Enabled: 1
  m_EditorHideFlags: 0
  m_Script: {fileID: 11500000, guid: b275e5f92732148048d7b77e264ac30e, type: 3}
  m_Name: 
  m_EditorClassIdentifier: 
  m_ShapeType: 0
  m_PrimitiveCenter:
    x: 0
    y: 0
    z: 0
  m_PrimitiveSize:
    x: 1
    y: 1
    z: 1
  m_PrimitiveOrientation:
    Value:
      x: -0
      y: 0
      z: 0
    RotationOrder: 4
  m_Capsule:
    Height: 1
    Radius: 0.5
    Axis: 2
  m_Cylinder:
    Height: 1
    Radius: 0.5
    Axis: 2
  m_CylinderSideCount: 20
  m_SphereRadius: 0.5
  m_MinimumSkinnedVertexWeight: 0.1
  m_ConvexHullGenerationParameters:
    m_SimplificationTolerance: 0.015
    m_BevelRadius: 0
    m_MinimumAngle: 2.5000002
  m_CustomMesh: {fileID: 0}
  m_ForceUnique: 0
  m_Material:
    m_SupportsTemplate: 1
    m_Template: {fileID: 0}
    m_CollisionResponse:
      m_Override: 0
      m_Value: 0
    m_Friction:
      m_Override: 0
      m_Value:
        Value: 0
        CombineMode: 2
    m_Restitution:
      m_Override: 0
      m_Value:
        Value: 0
        CombineMode: 2
    m_BelongsToCategories:
      m_Override: 0
      m_Value:
        Category00: 1
        Category01: 1
        Category02: 1
        Category03: 1
        Category04: 1
        Category05: 1
        Category06: 1
        Category07: 1
        Category08: 1
        Category09: 1
        Category10: 1
        Category11: 1
        Category12: 1
        Category13: 1
        Category14: 1
        Category15: 1
        Category16: 1
        Category17: 1
        Category18: 1
        Category19: 1
        Category20: 1
        Category21: 1
        Category22: 1
        Category23: 1
        Category24: 1
        Category25: 1
        Category26: 1
        Category27: 1
        Category28: 1
        Category29: 1
        Category30: 1
        Category31: 1
    m_CollidesWithCategories:
      m_Override: 0
      m_Value:
        Category00: 1
        Category01: 1
        Category02: 1
        Category03: 1
        Category04: 1
        Category05: 1
        Category06: 1
        Category07: 1
        Category08: 1
        Category09: 1
        Category10: 1
        Category11: 1
        Category12: 1
        Category13: 1
        Category14: 1
        Category15: 1
        Category16: 1
        Category17: 1
        Category18: 1
        Category19: 1
        Category20: 1
        Category21: 1
        Category22: 1
        Category23: 1
        Category24: 1
        Category25: 1
        Category26: 1
        Category27: 1
        Category28: 1
        Category29: 1
        Category30: 1
        Category31: 1
    m_CustomMaterialTags:
      m_Override: 0
      m_Value:
        Tag00: 0
        Tag01: 0
        Tag02: 0
        Tag03: 0
        Tag04: 0
        Tag05: 0
        Tag06: 0
        Tag07: 0
    m_SerializedVersion: 1
  m_SerializedVersion: 1
