{
    "name": "CameraInput",
    "maps": [
        {
            "name": "Base",
            "id": "211bd3c0-7772-43fa-afe5-75a66c911bbc",
            "actions": [
                {
                    "name": "Look",
                    "type": "Value",
                    "id": "8d3a89ba-63c9-421e-89e4-4806eb3ea6d7",
                    "expectedControlType": "Vector2",
                    "processors": "",
                    "interactions": "",
                    "initialStateCheck": true
                },
                {
                    "name": "LookAround",
                    "type": "Button",
                    "id": "3bea2c5d-8f7a-4e43-940d-2af67de44920",
                    "expectedControlType": "Button",
                    "processors": "",
                    "interactions": "",
                    "initialStateCheck": false
                },
                {
                    "name": "SpeedUp",
                    "type": "Button",
                    "id": "610899c6-e682-4dbb-a016-f8c49766c069",
                    "expectedControlType": "Button",
                    "processors": "",
                    "interactions": "",
                    "initialStateCheck": false
                },
                {
                    "name": "Move",
                    "type": "Value",
                    "id": "35828902-910b-47e5-bf34-3069e7bed8fe",
                    "expectedControlType": "Vector3",
                    "processors": "",
                    "interactions": "",
                    "initialStateCheck": true
                }
            ],
            "bindings": [
                {
                    "name": "WASD",
                    "id": "0853aaaa-5943-4ad2-bcc7-ce1f9a0879c1",
                    "path": "3DVector(mode=1)",
                    "interactions": "",
                    "processors": "",
                    "groups": "",
                    "action": "Move",
                    "isComposite": true,
                    "isPartOfComposite": false
                },
                {
                    "name": "Up",
                    "id": "5e5c96e0-9597-48b5-9c3b-711421213bf8",
                    "path": "<Keyboard>/space",
                    "interactions": "",
                    "processors": "",
                    "groups": "",
                    "action": "Move",
                    "isComposite": false,
                    "isPartOfComposite": true
                },
                {
                    "name": "Down",
                    "id": "10d091b7-80ef-4aed-a6a3-4183aada8cb9",
                    "path": "<Keyboard>/ctrl",
                    "interactions": "",
                    "processors": "",
                    "groups": "",
                    "action": "Move",
                    "isComposite": false,
                    "isPartOfComposite": true
                },
                {
                    "name": "Left",
                    "id": "c66aeb77-2c9a-46e5-bf1f-18f9c39048a5",
                    "path": "<Keyboard>/a",
                    "interactions": "",
                    "processors": "",
                    "groups": "",
                    "action": "Move",
                    "isComposite": false,
                    "isPartOfComposite": true
                },
                {
                    "name": "Right",
                    "id": "a7d5852f-f2ab-4ff4-8348-77aabb16b440",
                    "path": "<Keyboard>/d",
                    "interactions": "",
                    "processors": "",
                    "groups": "",
                    "action": "Move",
                    "isComposite": false,
                    "isPartOfComposite": true
                },
                {
                    "name": "Forward",
                    "id": "a08893d7-f36e-462b-a2d0-637e45127352",
                    "path": "<Keyboard>/w",
                    "interactions": "",
                    "processors": "",
                    "groups": "",
                    "action": "Move",
                    "isComposite": false,
                    "isPartOfComposite": true
                },
                {
                    "name": "Backward",
                    "id": "cb535335-05f8-479e-9a0b-8f14f2142ff7",
                    "path": "<Keyboard>/s",
                    "interactions": "",
                    "processors": "",
                    "groups": "",
                    "action": "Move",
                    "isComposite": false,
                    "isPartOfComposite": true
                },
                {
                    "name": "",
                    "id": "280f0d7c-7835-46ce-8be4-409602e03313",
                    "path": "<Keyboard>/leftShift",
                    "interactions": "",
                    "processors": "",
                    "groups": "",
                    "action": "SpeedUp",
                    "isComposite": false,
                    "isPartOfComposite": false
                },
                {
                    "name": "",
                    "id": "62abb3d5-98f0-4cc4-803b-d73067e2d753",
                    "path": "<Mouse>/rightButton",
                    "interactions": "",
                    "processors": "",
                    "groups": "",
                    "action": "LookAround",
                    "isComposite": false,
                    "isPartOfComposite": false
                },
                {
                    "name": "One Modifier",
                    "id": "005175f4-3917-40f2-85fd-d2fc165218b5",
                    "path": "OneModifier",
                    "interactions": "",
                    "processors": "",
                    "groups": "",
                    "action": "Look",
                    "isComposite": true,
                    "isPartOfComposite": false
                },
                {
                    "name": "modifier",
                    "id": "fab39c32-0152-4a5b-8508-cdcccfc968f0",
                    "path": "<Mouse>/rightButton",
                    "interactions": "",
                    "processors": "",
                    "groups": "",
                    "action": "Look",
                    "isComposite": false,
                    "isPartOfComposite": true
                },
                {
                    "name": "binding",
                    "id": "7c33661e-6aa6-4968-8f3c-169186dc8933",
                    "path": "<Pointer>/delta",
                    "interactions": "",
                    "processors": "",
                    "groups": "",
                    "action": "Look",
                    "isComposite": false,
                    "isPartOfComposite": true
                }
            ]
        }
    ],
    "controlSchemes": []
}