{
    "name": "InteractionInput",
    "maps": [
        {
            "name": "Base",
            "id": "9098fc15-863f-4070-aeeb-6631630c2c23",
            "actions": [
                {
                    "name": "Interact",
                    "type": "Button",
                    "id": "9c11795a-93a6-4030-a321-5547cdd0e72c",
                    "expectedControlType": "Button",
                    "processors": "",
                    "interactions": "",
                    "initialStateCheck": false
                },
                {
                    "name": "MousePosition",
                    "type": "Value",
                    "id": "789fb868-87b7-40be-bb93-ca6f07d02865",
                    "expectedControlType": "Vector2",
                    "processors": "",
                    "interactions": "",
                    "initialStateCheck": true
                }
            ],
            "bindings": [
                {
                    "name": "",
                    "id": "1f4f19b1-6071-4f31-af1a-4d2f456c1211",
                    "path": "<Mouse>/position",
                    "interactions": "",
                    "processors": "",
                    "groups": "",
                    "action": "MousePosition",
                    "isComposite": false,
                    "isPartOfComposite": false
                },
                {
                    "name": "",
                    "id": "05121452-bffd-425e-9bd4-4936ecae8840",
                    "path": "<Mouse>/leftButton",
                    "interactions": "",
                    "processors": "",
                    "groups": "",
                    "action": "Interact",
                    "isComposite": false,
                    "isPartOfComposite": false
                }
            ]
        }
    ],
    "controlSchemes": []
}